<svg xmlns="http://www.w3.org/2000/svg" width="10.865" height="14.757" viewBox="0 0 10.865 14.757">
  <path id="Path_2441" data-name="Path 2441" d="M18.316,0a5.439,5.439,0,0,0-5.433,5.433,5.3,5.3,0,0,0,.475,2.218,34.254,34.254,0,0,0,4.729,7,.3.3,0,0,0,.458,0,34.271,34.271,0,0,0,4.729-7,5.3,5.3,0,0,0,.475-2.218A5.439,5.439,0,0,0,18.316,0Zm0,8.255a2.822,2.822,0,1,1,2.822-2.822A2.825,2.825,0,0,1,18.316,8.255Z" transform="translate(-12.883)" fill="#0b1f2c"/>
</svg>
