<svg xmlns="http://www.w3.org/2000/svg" width="769.707" height="797.977" viewBox="0 0 769.707 797.977">
  <path id="_3" data-name="3" d="M355.876,4.711C350.222,4.4,344.568,4.3,338.914,4.3,154.08,4.3,4.3,154.08,4.3,338.914S154.08,673.529,338.914,673.529c129.837,0,242.4-73.913,297.915-181.956" transform="matrix(0.978, -0.208, 0.208, 0.978, 0.83, 134.129)" fill="none" stroke="#2B9EDC" stroke-linecap="round" stroke-linejoin="round" stroke-width="10"/>
</svg>
