<svg xmlns="http://www.w3.org/2000/svg" width="326.1" height="387.867" viewBox="0 0 326.1 387.867">
  <path id="_5" data-name="5" d="M1359.8,790.7a324.2,324.2,0,0,1,16,100.6c0,107.3-52.3,202.3-132.7,261" transform="translate(-379.277 -1343.711) rotate(34)" fill="none" stroke="#F9A436" stroke-linecap="round" stroke-miterlimit="10" stroke-width="10"/>
</svg>
