<svg xmlns="http://www.w3.org/2000/svg" width="288.723" height="292.91" viewBox="0 0 288.723 292.91">
  <path id="_6" data-name="6" d="M113.894,4.428c-1.762-.1-3.525-.128-5.287-.128a104.306,104.306,0,1,0,92.866,151.893" transform="translate(109.563 0.957) rotate(30)" fill="none" stroke="#ffa400" stroke-linecap="round" stroke-linejoin="round" stroke-width="10"/>
</svg>
