<?xml version="1.0" encoding="utf-8"?>
<!-- Generator: Adobe Illustrator 21.1.0, SVG Export Plug-In . SVG Version: 6.00 Build 0)  -->
<svg version="1.1" id="Layer_1" xmlns="http://www.w3.org/2000/svg" xmlns:xlink="http://www.w3.org/1999/xlink" x="0px" y="0px"
	 viewBox="0 0 837.1 789.1" style="enable-background:new 0 0 837.1 789.1;" xml:space="preserve">
<style type="text/css">
	.st0{fill:none;stroke:#00A1DF;stroke-width:10;stroke-linecap:round;stroke-miterlimit:10;}
	.st1{fill:none;}
</style>
<path id="_7" class="st0" d="M85.7,558.7c82.7,185.8,296,267.9,494.5,179.5"/>
<circle class="st1" cx="419.7" cy="405.3" r="368.5"/>
</svg>
