<?xml version="1.0" encoding="utf-8"?>
<!-- Generator: Adobe Illustrator 21.1.0, SVG Export Plug-In . SVG Version: 6.00 Build 0)  -->
<svg version="1.1" id="Layer_1" xmlns="http://www.w3.org/2000/svg" xmlns:xlink="http://www.w3.org/1999/xlink" x="0px" y="0px"
	 viewBox="0 0 989.2 948.1" style="enable-background:new 0 0 989.2 948.1;" xml:space="preserve">
<style type="text/css">
	.st0{opacity:0.2;fill:none;stroke:#FFFFFF;stroke-width:20;stroke-linecap:round;enable-background:new    ;}
	.st1{fill:none;}
</style>
<path id="_9" class="st0" d="M843,190c0,0,106.9,91.1,121,259.8"/>
<circle class="st1" cx="571.1" cy="472.3" r="392.9"/>
</svg>
