<svg id="facebook-logo-button" xmlns="http://www.w3.org/2000/svg" width="16.393" height="16.393" viewBox="0 0 16.393 16.393">
  <g id="Group_438" data-name="Group 438">
    <g id="Group_437" data-name="Group 437">
      <path id="Path_2461" data-name="Path 2461" d="M8.2,0a8.2,8.2,0,1,0,8.2,8.2A8.2,8.2,0,0,0,8.2,0Zm2.119,8.2H8.972v4.918H7.128V8.2H5.9V6.5H7.128l0-1c0-1.383.375-2.224,2-2.224h1.357v1.7H9.637c-.634,0-.665.237-.665.678l0,.848h1.525Z" fill="#0b1f2c"/>
    </g>
  </g>
</svg>
