<svg xmlns="http://www.w3.org/2000/svg" width="322.13" height="634.26" viewBox="0 0 322.13 634.26">
  <path id="_6" data-name="6" d="M1725.53,21.3c-172.379,0-312.13,139.751-312.13,312.13s139.751,312.13,312.13,312.13" transform="translate(-1408.401 -16.301)" fill="none" stroke="#ffa400" stroke-linecap="round" stroke-miterlimit="10" stroke-width="10"/>
</svg>
