<svg xmlns="http://www.w3.org/2000/svg" width="15.393" height="15.393" viewBox="0 0 15.393 15.393">
  <g id="instagram-logo" transform="translate(0 0.001)">
    <path id="Path_2458" data-name="Path 2458" d="M11.144,0h-6.9A4.252,4.252,0,0,0,0,4.248v6.9a4.252,4.252,0,0,0,4.248,4.248h6.9a4.253,4.253,0,0,0,4.248-4.248v-6.9A4.252,4.252,0,0,0,11.144,0Zm2.882,11.144a2.885,2.885,0,0,1-2.882,2.882h-6.9a2.885,2.885,0,0,1-2.882-2.882v-6.9A2.885,2.885,0,0,1,4.248,1.366h6.9a2.885,2.885,0,0,1,2.882,2.882v6.9Z" transform="translate(0 0)" fill="#0b1f2c"/>
    <path id="Path_2459" data-name="Path 2459" d="M44.934,40.97A3.966,3.966,0,1,0,48.9,44.936,3.971,3.971,0,0,0,44.934,40.97Zm0,6.566a2.6,2.6,0,1,1,2.6-2.6A2.6,2.6,0,0,1,44.934,47.536Z" transform="translate(-37.238 -37.24)" fill="#0b1f2c"/>
    <path id="Path_2460" data-name="Path 2460" d="M119.922,28.251a1,1,0,1,0,.708.293A1.005,1.005,0,0,0,119.922,28.251Z" transform="translate(-108.094 -25.679)" fill="#0b1f2c"/>
  </g>
</svg>
